Vorhersage-Modellierung des Diamantenpreises
…
6 Feature Engineering

train2 %>% 
  mutate(volume = x*y*z) %>% 
  correlate() %>% 
  focus(volume)

## 
## Correlation method: 'pearson'
## Missing treated using: 'pairwise.complete.obs'

## # A tibble: 24 x 2
##    term          volume
##    <chr>          <dbl>
##  1 carat        0.970  
##  2 depth        0.00576
##  3 table        0.168  
##  4 price        0.897  
##  5 x            0.950  
##  6 y            0.975  
##  7 z            0.942  
##  8 cut_good     0.0257 
##  9 cut_ideal   -0.150  
## 10 cut_premium  0.114  
## #  with 14 more rows
…
